Analyzing Injuries in Professional Soccer Players
…
## The following object is masked from 'package:purrr':
## 
##     set_names

## The following object is masked from 'package:tidyr':
## 
##     extract

# Training Data
results.train<-lm_fit %>% predict(new_data= injury_train) %>% mutate(truth=injury_train$Total.Days, model= "lm") %>% bind_rows(rf_fit %>% predict(new_data=injury_train) %>% mutate(truth=injury_train$Total.Days, model="rf"))
results.train

## # A tibble: 472 x 3
##    .pred truth model
##    <dbl> <int> <chr>
##  1  26.9     3 lm   
##  2  20.5     6 lm   
##  3  47.8    65 lm   
##  4 235.     12 lm   
##  5  19.3    32 lm   
##  6  17.5    37 lm   
##  7  26.6     2 lm   
##  8  24.3     4 lm   
##  9  12.9     3 lm   
## 10  17.8     2 lm   
## #  with 462 more rows

# Testing Data
results.test<-lm_fit %>% predict(new_data= injury_test) %>% mutate(truth=injury_test$Total.Days, model= "lm") %>% bind_rows(rf_fit %>% predict(new_data=injury_test) %>% mutate(truth=injury_test$Total.Days, model="rf"))
results.test

## # A tibble: 158 x 3
##    .pred truth model
##    <dbl> <int> <chr>
##  1  34.8    33 lm   
##  2  22.1    23 lm   
##  3  54.0    55 lm   
##  4  45.2    69 lm   
##  5  24.2    26 lm   
##  6  23.0    18 lm   
##  7  60.7    76 lm   
##  8  57.1    84 lm   
##  9  28.1     4 lm   
## 10  19.0     5 lm   
## #  with 148 more rows
…
